…
rats_2023
```

<img src="final_project_files/figure-gfm/unnamed-chunk-6-1.png" width="90%" />

## Regression analyses

``` r
rats_df
```

    ## # A tibble: 232,417 × 12
    ##    unique_key month day   year  time    location_type incident_zip city  borough
    ##         <dbl> <chr> <chr> <chr> <chr>   <chr>         <chr>        <chr> <chr>  
    ##  1   56242499 12    13    2022  06:52:… 3+ Family Ap… 10472        BRONX BRONX  
    ##  2   56242808 12    13    2022  02:28:… Other (Expla… 10025        NEW … MANHAT…
    ##  3   57383018 04    21    2023  10:03:… 3+ Family Ap… 10026        NEW … MANHAT…
    ##  4   58545179 08    18    2023  03:37:… 1-2 Family D… 11222        BROO… BROOKL…
    ##  5   56610428 01    24    2023  11:45:… Other (Expla… 11204        BROO… BROOKL…
    ##  6   58788175 09    11    2023  11:52:… 3+ Family Ap… 11238        BROO… BROOKL…
    ##  7   56244873 12    13    2022  01:16:… 3+ Family Ap… 10451        BRONX BRONX  
    ##  8   58637446 08    27    2023  06:24:… 3+ Family Ap… 11211        BROO… BROOKL…
    ##  9   58856599 09    19    2023  01:20:… 1-2 Family D… 11203        BROO… BROOKL…
    ## 10   58051801 06    30    2023  10:22:… Other (Expla… 11222        BROO… BROOKL…
    ## # ℹ 232,407 more rows
    ## # ℹ 3 more variables: latitude <dbl>, longitude <dbl>, location <chr>
